#!/usr/bin/gnuplot

set terminal png notransparent truecolor large enhanced font DejaVuSansMono 10 size 1024,768;

set output 'out.png';
set ylabel 'values';
set xtics 5
set grid xtics ytics mytics;
set multiplot layout 2,1 columnsfirst;

timemin=`head -n 1 ccngetfile.win | awk '{print $1}'`
tcqueuefactor=4.0

set tmargin 1
set bmargin 2
set lmargin 5
set rmargin 1

#set xrange [0:20] 

plot \
 'ccngetfile.win' using ($1-timemin):2 title 'ccngetfile window 1' with lines linewidth 2,\
 'ccngetfile.win' using ($1-timemin):5 title 'ccngetfile inOrder' with lines linewidth 2,\
 'ccngetfile.win' using ($1-timemin):6 title 'ccngetfile outOfOrder' with lines linewidth 2,\
 'dups' using ($1-timemin):(1.0) title 'dups' with points linewidth 2;

#set xrange [GPVAL_X_MIN:GPVAL_X_MAX] 
#set yrange [GPVAL_Y_MIN:GPVAL_Y_MAX * 4/5] 
shift=0

plot \
 'n1.face7.AandB100M.up' using ($1-timemin+shift):3 title 'AandB/100M face7 pending interests' with lines linewidth 2,\
 'n1.face7.AandB100M.up' using ($1-timemin+shift):5 title 'AandB/100M face7 max pending' with lines linewidth 2,\
 'n1.face7.AandB100M.up' using ($1-timemin+shift):7 title 'AandB/100M face7 low threshold' with lines linewidth 2,\
 'ccngetfile.win' using ($1-timemin+shift):2 title 'ccngetfile window 1' with lines linewidth 2,\
 'thresholds.face7' using ($1-timemin+shift):2:($1-timemin):($1-timemin+$3) title 'face 7 threshold' with xerrorbars linewidth 2,\
 'losses.face7' using ($1-timemin+shift):(5.0) title 'face 7 losses' with points linewidth 2;

#set title 'face 9'

#set autoscale y;
##set yrange [0:300] 
#
#plot \
# 'n1.face7.AandB100M.up' using ($1-timemin):6 title 'AandB/100M face7 rtt' with lines linewidth 2;

unset multiplot

#plot \
# 'lifetimes.forie' using ($1-timemin):2 title 'interest lifetimes 4ie' with points linewidth 1;

#plot \
 #'ccngetfile.win' using ($1-timemin):3 title 'ccngetfile received' with lines linewidth 2,\
 #'ccngetfile.win' using ($1-timemin):4 title 'ccngetfile interests' with lines linewidth 2,\
 #'ccngetfile.win' using ($1-timemin):($3/100) title 'ccngetfile received / 100' with lines linewidth 2,\
# 'n1.face7.AandB100M.up' using ($1-timemin):($4 / 10000)  title 'face7 choice_delta' with lines linewidth 2,\
# 'n1.face9.AandB100M.up' using ($1-timemin):($4 / -10000) title 'face9 choice_delta' with lines linewidth 1;
 #'tcqueuemonitor.n2.log' using ($1-timemin):($2/tcqueuefactor) title 'n2 queue' with lines linewidth 2,\
 #'tcqueuemonitor.n3.log' using ($1-timemin):($2/tcqueuefactor) title 'n3 queue' with lines linewidth 2,\

 #'lifetimes' using ($1-timemin):2 title 'interest lifetimes' with points linewidth 1;
 #'n1.face7.AandB100M.up' using ($1-timemin):2 title 'AandB/100M face7 threshold' with lines linewidth 2,\
 #'n1.face9.AandB100M.up' using ($1-timemin):2 title 'AandB/100M face9 threshold' with xerrorbars linewidth 2,\
 #'thresholdup.face7' using ($1-timemin):(10.0):($1-timemin):($1-timemin+$2) title 'face 7 threshold up' with xerrorbars linewidth 2,\
 #'thresholdup.face9' using ($1-timemin):(10.0):($1-timemin):($1-timemin+$2) title 'face 9 threshold up' with xerrorbars linewidth 2,\

 #'n1.face7.AandB100M2.up' using ($1-timemin):2 title 'AandB/100M2 face7 threshold' with lines linewidth 2,\
 #'n1.face9.AandB100M2.up' using ($1-timemin):2 title 'AandB/100M2 face9 threshold' with lines linewidth 2,\
 #'ccngetfile2.win' using ($1-timemin):2 title 'ccngetfile windo 2' with lines linewidth 2,\
 
# 'n1.face7.AandB100M.up' using ($1-timemin):2 title 'AandB/100M face7 threshold' with lines linewidth 2,\
# 'n1.face9.AandB100M.up' using ($1-timemin):2 title 'AandB/100M face9 threshold' with lines linewidth 2,\

 #'n1.face7.AandB100M2.up' using ($1-timemin):3 title 'AandB/100M2 face7 pending interests' with lines linewidth 2,\
 #'n1.face9.AandB100M2.up' using ($1-timemin):3 title 'AandB/100M2 face9 pending interests' with lines linewidth 2,\


# 'n1.face7.onlyA.up' using ($1-timemin):3 title 'onlyA face7 pending interests' with lines linewidth 2,\
# 'n1.face7.AandB.up' using ($1-timemin):3 title 'AandB face7 pending interests' with lines linewidth 2,\
# 'n1.face7.onlyA.up' using ($1-timemin):2 title 'onlyA face7 threshold' with lines linewidth 2,\
# 'n1.face9.AandB.up' using ($1-timemin):3 title 'AandB face9 pending interests' with lines linewidth 2,\
# 'n1.face9.AandB.up' using ($1-timemin):2 title 'AandB face9 threshold' with lines linewidth 2,\
# 'n1.face7.AandB.up' using ($1-timemin):2 title 'AandB face7 threshold' with lines linewidth 2;

# 'ccngetfile2.win' using ($1-timemin):2 title 'ccngetfile window 2' with lines linewidth 2,\
# 'ccngetfile.win' using ($1-timemin):2 title 'ccngetfile window 1' with lines linewidth 2;

 #'n1.face9.onlyA.up' using ($1-timemin):2 title 'onlyA face9 threshold' with lines linewidth 2,\
 #'n1.face9.onlyA.up' using ($1-timemin):3 title 'onlyA face9 pending interests' with lines linewidth 2,\
